INE,nom,prenom,specialite1,specialite2,numero de classe
1,Rey,Kylian,Maths,S. Phy.,1
2,Humbert,Jade,Maths,NSI,1
3,Dufour,Mehdi,Maths,SVT,1
4,Girard,Candice,Maths,S. Phy.,1
5,Meyer,Killian,Maths,NSI,1
6,Mallet,Jérémy,Maths,NSI,1
7,Leclercq,Julien,Maths,S. Phy.,1
8,Benoit,Pierre,Maths,S. Phy.,1
9,Gerard,Nicolas,Maths,S. Phy.,1
10,Gillet,Kilian,Maths,NSI,1
11,Bernard,Bastien,Maths,S. Phy.,1
12,Laurent,Élouan,Maths,SVT,1
13,Le gall,Kimberley,S. Phy.,Maths,1
14,Cousin,Julie,Maths,S. Phy.,1
15,Jacob,Thibault,Maths,S. Phy.,1
16,Marie,Marie,Maths,S. Phy.,1
17,Carpentier,Mathis,Maths,SVT,1
18,Dupuis,Samuel,Maths,S. Phy.,1
19,Blanchard,Guillemette,Maths,S. Phy.,1
20,Berger,Maryam,Maths,S. Phy.,1
21,Leclerc,Alexis,Maths,NSI,1
22,Poulain,Noah,Maths,SES,1
23,Blanc,Roméo,Maths,S. Phy.,1
24,Weber,Pauline,Maths,NSI,1
25,Charpentier,Mathilde,Maths,S. Phy.,1
26,Nguyen,Adrian,Maths,NSI,1
27,Riviere,Kimberley,Maths,SVT,1
28,Clement,Jeanne,Maths,S. Phy.,1
29,Boyer,Capucine,Maths,S. Phy.,1
30,Colin,Sarah,Maths,S. Phy.,1
31,Collet,Théo,Maths,S. Phy.,1
32,Daniel,Gaspard,Maths,NSI,1
33,Pasquier,Margot,Maths,SVT,1
34,Leclercq,Gilbert,Maths,SVT,1
35,Fournier,Cloé,HLP,Maths,1
36,Humbert,Justine,Maths,SES,2
37,Fabre,Fanny,HLP,LLCE,2
38,Lefebvre,Nina,HGSP,HLP,2
39,Fabre,Alicia,HGSP,LLCE,2
40,Schmitt,Noë,Maths,NSI,2
41,Gaillard,Nina,LLCE,SES,2
42,Le gall,Alicia,HGSP,LLCE,2
43,Richard,Émile,HGSP,SES,2
44,Laine,Pauline,S. Phy.,SVT,2
45,Joly,Luna,HGSP,SVT,2
46,Rolland,Léon,HGSP,LLCE,2
47,Colin,Angelina,HGSP,SES,2
48,Michel,Marion,HGSP,SES,2
49,Jean,Salomé,LLCE,SVT,2
50,Dumas,Maïwenn,HGSP,LLCE,2
51,Laurent,Mohamed,HLP,SES,2
52,Andre,Pierre,S. Phy.,SVT,2
53,Vidal,Kilian,HGSP,SES,2
54,Huet,Kimberley,LLCE,SES,2
55,Berger,Evan,LLCE,SVT,2
56,Lopez,Catherine,HLP,LLCE,2
57,Laine,Charlotte,HGSP,HLP,2
58,Boyer,Ambre,HGSP,SES,2
59,Arnaud,Mohamed,HGSP,HLP,2
60,Humbert,Louna,HGSP,HLP,2
61,Robert,Enzo,HGSP,SES,2
62,Gauthier,Colin,Maths,S. Phy.,2
63,Germain,Kimberley,Maths,S. Phy.,2
64,Lambert,Rémi,HGSP,SES,2
65,Gonzalez,Alicia,Maths,NSI,2
66,Dupuis,Anaël,HGSP,SES,2
67,Gautier,Alice,HLP,SES,2
68,Royer,Florentin,HGSP,SES,2
69,Dumont,Mélissa,HLP,LLCE,2
70,Millet,Roméo,HGSP,SVT,2
71,Benoit,Guillemette,S. Phy.,SVT,3
72,Dufour,Jeanne,SVT,SES,3
73,Marchand,Cloé,S. Phy.,SES,3
74,Collin,Nolan,LLCE,SES,3
75,Brunet,Gaspard,Maths,NSI,3
76,Andre,Fanny,HGSP,HLP,3
77,Nguyen,Ethan,Maths,SVT,3
78,Brun,Dimitri,HGSP,SES,3
79,Roy,Jordan,HGSP,SVT,3
80,Bonnet,Valentin,SVT,SES,3
81,Bertrand,Davy,HGSP,HLP,3
82,Etienne,Léonie,HGSP,SES,3
83,Humbert,Louise,HGSP,SES,3
84,Roussel,Benjamin,LLCE,SES,3
85,Germain,Léo,HGSP,SES,3
86,Cordier,Zoé,HGSP,SES,3
87,Andre,Éloïse,S. Phy.,SES,3
88,Le gall,Lilou,SVT,SES,3
89,Le roux,Alice,HGSP,SES,3
90,Durand,Mélanie,SVT,HLP,3
91,Millet,Mathéo,Maths,SVT,3
92,Roche,Yohan,HGSP,HLP,3
93,Nguyen,Émile,HGSP,HLP,3
94,Arnaud,Hugo,Maths,S. Phy.,3
95,Thomas,Yohan,HGSP,SES,3
96,Gautier,Valentin,Maths,SVT,3
97,Pasquier,Mélanie,S. Phy.,SVT,3
98,Guyot,Adrian,HGSP,LLCE,3
99,Michel,Françoise,Maths,NSI,3
100,Boyer,Enzo,HGSP,HLP,3
101,Chevallier,Laura,HLP,SES,3
102,Andre,Noémie,HLP,LLCE,3
103,Charles,Quentin,HLP,LLCE,3
104,Rodriguez,Katell,LLCE,SES,3
105,Paris,Elsa,LLCE,SES,3
106,Perez,Loevan,HGSP,LLCE,4
107,Boucher,Léa,HGSP,HLP,4
108,Rey,Lutécia,HLP,LLCE,4
109,Collet,Rémi,HGSP,HLP,4
110,Garnier,Margot,Maths,S. Phy.,4
111,Deschamps,Lamia,HGSP,SES,4
112,Millet,Célia,HGSP,SES,4
113,Vasseur,Julie,HGSP,SVT,4
114,Pereira,Maëlle,NSI,S. Phy.,4
115,Evrard,Léo,Maths,S. Phy.,4
116,Denis,Adrian,S. Phy.,SVT,4
117,Leroy,Kimberley,HLP,SES,4
118,Daniel,Rose,HGSP,SVT,4
119,Chevalier,Marwane,NSI,S. Phy.,4
120,Schmitt,Catherine,HGSP,SES,4
121,Charpentier,Gabin,HGSP,SVT,4
122,Aubry,Adrian,Maths,NSI,4
123,Perez,Benjamin,HGSP,NSI,4
124,Noel,Lily,HGSP,LLCE,4
125,Duval,Gaspard,Maths,SVT,4
126,Richard,Adrian,HGSP,SVT,4
127,Leroux,Catherine,LLCE,SVT,4
128,Jacob,Loane,HGSP,SVT,4
129,Huet,Éléna,HGSP,SES,4
130,Prevost,Chloé,S. Phy.,SVT,4
131,Noel,Rémi,HGSP,HLP,4
132,Barbier,Maxime,HGSP,SVT,4
133,Leclercq,Kyllian,SVT,SES,4
134,Simon,Nolan,HGSP,LLCE,4
135,Meyer,Maïwenn,Maths,SES,4
136,Lefevre,Lucie,HGSP,HLP,4
137,Jacob,Lina,HGSP,HLP,4
138,Olivier,Bruno,S. Phy.,SVT,4
139,Louis,Mohamed,HGSP,SES,4
140,Jacquet,Ethan,Maths,SVT,5
141,Meunier,Lauriane,Maths,S. Phy.,5
142,Lebrun,Guillaume,Maths,SVT,5
143,Dupont,Candice,Maths,SES,5
144,Aubert,Capucine,Maths,S. Phy.,5
145,Paul,Maïwenn,Maths,SVT,5
146,Robin,Arthur,Maths,NSI,5
147,Louis,Louise,Maths,S. Phy.,5
148,Masson,Marine,Maths,SVT,5
149,Le gall,Théo,Maths,S. Phy.,5
150,Legrand,Maxime,Maths,SVT,5
151,Bailly,Thibault,Maths,S. Phy.,5
152,Menard,Alicia,Maths,SVT,5
153,Fournier,Mehdi,Maths,SVT,5
154,Duval,Lily,Maths,NSI,5
155,Collin,Kilian,Maths,SVT,5
156,Moulin,Mohamed,Maths,S. Phy.,5
157,Meyer,Clément,Maths,S. Phy.,5
158,Dufour,Léonard,Maths,SVT,5
159,Nguyen,Manon,Maths,SVT,5
160,Bourgeois,Florentin,Maths,S. Phy.,5
161,Marchand,Simon,Maths,S. Phy.,5
162,Meyer,Killian,Maths,NSI,5
163,Pasquier,Benjamin,Maths,S. Phy.,5
164,Schneider,Lana,Maths,S. Phy.,5
165,Maillard,Aaron,Maths,NSI,5
166,Robin,Léon,Maths,S. Phy.,5
167,Millet,Baptiste,Maths,SES,5
168,Simon,Roméo,Maths,S. Phy.,5
169,Rolland,Timothée,Maths,NSI,5
170,Gautier,Martin,Maths,NSI,5
171,Hubert,Bastien,Maths,SES,5
172,Barbier,Sara,Maths,NSI,5
173,Boucher,Océane,Maths,SVT,5
174,Collet,Rémi,Maths,SVT,5
175,Olivier,Roméo,S. Phy.,SVT,6
176,Fournier,Océane,S. Phy.,SVT,6
177,Weber,Émilie,S. Phy.,SVT,6
178,Blanchard,Thibault,S. Phy.,SVT,6
179,Blanchard,Adrien,S. Phy.,SVT,6
180,Fernandez,Élisa,S. Phy.,SVT,6
181,Guillaume,Macéo,S. Phy.,SVT,6
182,Gerard,Tom,HGSP,SES,6
183,Brunet,Rose,HLP,SES,6
184,Marchal,Loevan,S. Phy.,SVT,6
185,Lemoine,Kimberley,LLCE,SES,6
186,Bonnet,Martin,HGSP,LLCE,6
187,Riviere,Killian,S. Phy.,SVT,6
188,Aubry,Julie,LLCE,SES,6
189,Louis,Maxime,S. Phy.,SVT,6
190,Francois,Cédric,S. Phy.,SVT,6
191,Marty,Solene,S. Phy.,SVT,6
192,Martinez,Jérémy,S. Phy.,SVT,6
193,Arnaud,Maxence,S. Phy.,SVT,6
194,Leveque,Elsa,S. Phy.,SVT,6
195,Denis,Florentin,SVT,SES,6
196,Humbert,Fanny,S. Phy.,SVT,6
197,Perez,Juliette,S. Phy.,SVT,6
198,Noel,Lucie,HGSP,SES,6
199,Lopez,Mathilde,S. Phy.,SVT,6
200,Albert,Yüna,S. Phy.,SVT,6
201,Barre,Bastien,HLP,LLCE,6
202,Cordier,Mathieu,SVT,SES,6
203,Gomez,Arthur,S. Phy.,SVT,6
204,Perrot,Renaud,S. Phy.,SVT,6
205,Bourgeois,Clara,HGSP,LLCE,6
206,Charpentier,Kilian,SVT,SES,6
207,Colin,Romain,S. Phy.,SVT,6
208,Garnier,Pauline,S. Phy.,SVT,6
209,Le gall,Clara,NSI,SES,6
